{
    "name": "mapsandmelodies-the-sculls-beacon",
    "title": "Maps & Melodies - The Scull's Beacon",
    "description": "A paddle boat equipped for life at sea. Complete with walls and dynamic lighting.",
    "version": "1.0.0",
    "author": "Maps and Melodies",
    "minimumCoreVersion": "0.8.6",
    "compatibleCoreVersion": "9",
    "packs": [
        {
            "name": "module-creatures",
            "label": "Paddle Boats",
            "path": "./packs/creatures.db",
            "entity": "Actor",
            "type": "Actor"
        },
        {
            "name": "module-scenes",
            "label": "The Scull's Beacon",
            "path": "./packs/scenes.db",
            "entity": "Scene",
            "type": "Scene"
        },
        {
            "name": "module-playlists",
            "label": "Module Playlists",
            "path": "./packs/playlists.db",
            "entity": "Playlist",
            "type": "Playlist"
        }
    ],
    "manifest": "https://gitlab.com/mapsandmelodies/the-sculls-beacon/-/blob/main/module.json",
    "download": "https://gitlab.com/mapsandmelodies/the-sculls-beacon/-/blob/main/mapsandmelodies-the-sculls-beacon.zip"
  }